{
	"@jupyterlab/apputils-extension:themes":{
		"theme": "JupyterLab Dark",
		"theme-scrollbars": true
	},
	"@jupyterlab/extensionmanager-extension:plugin":{
		"disclaimed": true
	},
	"@jupyterlab/statusbar-extension:plugin":{
		"visible": false
	}
}